<?xml version="1.0" encoding="UTF-8"?>
<!DOCTYPE svg PUBLIC "-//W3C//DTD SVG 1.1//EN" "http://www.w3.org/Graphics/SVG/1.1/DTD/svg11.dtd">
<!-- Creator: CorelDRAW X7 -->
<svg xmlns="http://www.w3.org/2000/svg" xml:space="preserve" width="0.139756in" height="0.279512in" version="1.1" style="shape-rendering:geometricPrecision; text-rendering:geometricPrecision; image-rendering:optimizeQuality; fill-rule:evenodd; clip-rule:evenodd"
viewBox="0 0 2 3"
 xmlns:xlink="http://www.w3.org/1999/xlink">
 <defs>
  <style type="text/css">
   <![CDATA[
    .fil0 {fill:#999999;fill-opacity:0.400000}
    .fil1 {fill:#999999}
   ]]>
  </style>
 </defs>
 <g id="Layer_x0020_1">
  <metadata id="CorelCorpID_0Corel-Layer"/>
  <path class="fil0" d="M2 3c-1,0 -2,-1 -2,-1 0,-1 1,-2 2,-2l0 3z"/>
  <path class="fil1" d="M1 1l0 0c0,0 0,1 0,1l0 0c0,0 0,0 0,0l0 0 -1 0c0,0 0,0 0,-1l0 0c0,0 0,0 0,0l1 0 0 0c0,0 0,0 0,0z"/>
 </g>
</svg>
